First Name,Last Name,Email Address,Mentor,Date of Last Game,High Score
Raven H.,Williams,ravenwilliams@gmail.com,,"Jan 26, 2014","10,000,000"
Elizabeth,Koenig,elizabethk@outlook.com,Taylor Baquet,"Dec 11, 2015","400,000"
Taylor,Baquet,tbaq@nytimes.com,Raven H. Williams,"Feb 28, 2012","2,000"
